
{
    "name": "pollution-love",
    "version": "0.0.6",
    "factorio_version": "1.1",
    "title": "Some Love for Pollution",
    "author": "DBotThePony",
    "homepage": "https://gitlab.com/DBotThePony/factorio-pollution-love",
    "description": "Pollution tweaks for other mods, show pollution some love!",
    "dependencies": [
        "base >= 1.1",
		"? omnimatter_compression >= 4.0.0",
		"? Krastorio2 >= 1.0.0",
		"? enemyracemanager",
		"? erm_toss",
		"? erm_zerg"
    ]
}
